[gd_scene load_steps=10 format=2]

[ext_resource path="res://tiles/dev.tres" type="TileSet" id=1]
[ext_resource path="res://prefabs/Player.tscn" type="PackedScene" id=2]
[ext_resource path="res://prefabs/Camera.tscn" type="PackedScene" id=3]
[ext_resource path="res://prefabs/Spike.tscn" type="PackedScene" id=4]
[ext_resource path="res://scripts/midbosstrigger.gd" type="Script" id=5]
[ext_resource path="res://prefabs/miniboss1/spiker.tscn" type="PackedScene" id=6]
[ext_resource path="res://prefabs/checkpoint.tscn" type="PackedScene" id=7]
[ext_resource path="res://scripts/loadlevel.gd" type="Script" id=8]

[sub_resource type="RectangleShape2D" id=1]
extents = Vector2( 30, 140 )

[node name="TileMap" type="TileMap"]
position = Vector2( 1, 0 )
tile_set = ExtResource( 1 )
cell_y_sort = true
format = 1
tile_data = PoolIntArray( -65536, 0, 0, -65535, 0, 0, -65534, 0, 0, -65533, 0, 0, -65532, 0, 0, -65531, 0, 0, -65530, 0, 0, -65529, 0, 0, -65528, 0, 0, -65527, 0, 0, -65526, 0, 0, -65525, 0, 0, -65524, 0, 0, -65523, 0, 0, -65522, 0, 0, -65521, 0, 0, -65520, 0, 0, -65519, 0, 0, -65518, 0, 0, -65517, 0, 0, -65516, 0, 0, -65515, 0, 0, -65514, 0, 0, -65513, 0, 0, -65512, 0, 0, -65511, 0, 0, -65510, 0, 0, -65509, 0, 0, -65508, 0, 0, -65507, 0, 0, -65506, 0, 0, -65505, 0, 0, 0, 0, 0, 11, 536870912, 0, 31, 536870912, 0, 36, 0, 0, 37, 0, 0, 38, 0, 0, 39, 536870912, 0, 43, 536870912, 0, 44, 0, 0, 45, 0, 0, 65536, 0, 0, 65547, 536870912, 0, 65567, 536870912, 0, 65575, 536870912, 0, 65579, 536870912, 0, 131072, 0, 0, 131083, 536870912, 0, 131099, 536870912, 0, 131100, 536870912, 0, 131101, 536870912, 0, 131103, 536870912, 0, 131111, 536870912, 0, 131115, 536870912, 0, 196608, 536870912, 0, 196619, 536870912, 0, 196635, 536870912, 0, 196639, 536870912, 0, 196647, 536870912, 0, 196651, 536870912, 0, 262144, 0, 0, 262148, 0, 0, 262152, 536870912, 0, 262153, 536870912, 0, 262155, 536870912, 0, 262168, 536870912, 0, 262171, 536870912, 0, 262175, 536870912, 0, 262183, 536870912, 0, 262187, 536870912, 0, 327680, 0, 0, 327681, 0, 0, 327682, 0, 0, 327683, 0, 0, 327684, 0, 0, 327688, 536870912, 0, 327689, 536870912, 0, 327691, 536870912, 0, 327701, 536870912, 0, 327707, 536870912, 0, 327709, 536870912, 0, 327710, 536870912, 0, 327711, 536870912, 0, 327716, 536870912, 0, 327717, 536870912, 0, 327727, 536870912, 0, 393216, 536870912, 0, 393224, 536870912, 0, 393225, 536870912, 0, 393243, 536870912, 0, 393252, 536870912, 0, 393253, 536870912, 0, 393262, 1, 0, 393263, 536870912, 0, 458752, 536870912, 0, 458758, 536870912, 0, 458759, 536870912, 0, 458760, 536870912, 0, 458761, 536870912, 0, 458764, 0, 0, 458779, 536870912, 0, 458782, 0, 0, 458788, 536870912, 0, 458789, 536870912, 0, 458793, 0, 0, 458798, 536870912, 0, 458799, 536870912, 0, 524288, 536870912, 0, 524289, 536870912, 0, 524290, 536870912, 0, 524291, 536870912, 0, 524292, 536870912, 0, 524293, 536870912, 0, 524294, 536870912, 0, 524295, 536870912, 0, 524296, 536870912, 0, 524297, 536870912, 0, 524300, 536870912, 0, 524301, 536870912, 0, 524302, 536870912, 0, 524303, 536870912, 0, 524304, 536870912, 0, 524305, 536870912, 0, 524306, 536870912, 0, 524307, 536870912, 0, 524315, 536870912, 0, 524318, 536870912, 0, 524319, 536870912, 0, 524320, 536870912, 0, 524321, 536870912, 0, 524322, 536870912, 0, 524323, 536870912, 0, 524324, 536870912, 0, 524325, 536870912, 0, 524328, 1, 0, 524329, 0, 0, 524333, 0, 0, 524334, 536870912, 0, 524335, 536870912, 0, 524338, 536870912, 0, 524339, 536870912, 0, 524340, 536870912, 0, 524341, 536870912, 0, 524342, 536870912, 0, 524343, 536870912, 0, 524344, 536870912, 0, 524345, 536870912, 0, 524346, 536870912, 0, 524347, 536870912, 0, 524348, 536870912, 0, 524351, 0, 0, 524352, 0, 0, 589824, 536870912, 0, 589825, 536870912, 0, 589826, 536870912, 0, 589827, 536870912, 0, 589828, 536870912, 0, 589829, 536870912, 0, 589830, 536870912, 0, 589831, 536870912, 0, 589832, 536870912, 0, 589833, 536870912, 0, 589836, 536870912, 0, 589837, 536870912, 0, 589838, 536870912, 0, 589839, 536870912, 0, 589840, 536870912, 0, 589841, 536870912, 0, 589842, 536870912, 0, 589843, 536870912, 0, 589851, 0, 0, 589854, 0, 0, 589865, 0, 0, 589887, 0, 0, 589888, 0, 0, 655387, 0, 0, 655390, 0, 0, 655423, 0, 0, 655424, 0, 0, 720959, 0, 0, 720960, 0, 0, 786434, 536870912, 0, 786435, 536870912, 0, 786436, 536870912, 0 )

[node name="Player" parent="." instance=ExtResource( 2 )]
position = Vector2( 137, 500 )

[node name="Camera2D" parent="." instance=ExtResource( 3 )]

[node name="Spike" parent="." instance=ExtResource( 4 )]
position = Vector2( 2455, 1062 )

[node name="Spike10" parent="." instance=ExtResource( 4 )]
position = Vector2( 2441, 564.5 )

[node name="Spike11" parent="." instance=ExtResource( 4 )]
position = Vector2( 2473, 562.5 )

[node name="Spike12" parent="." instance=ExtResource( 4 )]
position = Vector2( 2505, 560.5 )

[node name="Spike13" parent="." instance=ExtResource( 4 )]
position = Vector2( 2533, 558.5 )

[node name="Spike14" parent="." instance=ExtResource( 4 )]
position = Vector2( 2557, 558.5 )

[node name="Spike15" parent="." instance=ExtResource( 4 )]
position = Vector2( 2587, 558.5 )

[node name="Spike16" parent="." instance=ExtResource( 4 )]
position = Vector2( 2611, 558.5 )

[node name="Spike17" parent="." instance=ExtResource( 4 )]
position = Vector2( 2705, 562.5 )

[node name="Spike18" parent="." instance=ExtResource( 4 )]
position = Vector2( 2735, 560.5 )

[node name="Spike23" parent="." instance=ExtResource( 4 )]
position = Vector2( 2659, 444 )

[node name="Spike24" parent="." instance=ExtResource( 4 )]
position = Vector2( 2674, 444 )

[node name="Spike52" parent="." instance=ExtResource( 4 )]
position = Vector2( 2641, 444 )

[node name="Spike19" parent="." instance=ExtResource( 4 )]
position = Vector2( 2771, 556.5 )

[node name="Spike20" parent="." instance=ExtResource( 4 )]
position = Vector2( 2805, 556.5 )

[node name="Spike21" parent="." instance=ExtResource( 4 )]
position = Vector2( 2837, 562.5 )

[node name="Spike22" parent="." instance=ExtResource( 4 )]
position = Vector2( 2871, 560.5 )

[node name="Spike25" parent="." instance=ExtResource( 4 )]
position = Vector2( 1865, 592 )

[node name="Spike51" parent="." instance=ExtResource( 4 )]
position = Vector2( 1893, 588.5 )

[node name="Spike26" parent="." instance=ExtResource( 4 )]
position = Vector2( 655, 568.5 )

[node name="Spike32" parent="." instance=ExtResource( 4 )]
position = Vector2( 685, 568.5 )

[node name="Spike33" parent="." instance=ExtResource( 4 )]
position = Vector2( 713, 568.5 )

[node name="Spike34" parent="." instance=ExtResource( 4 )]
position = Vector2( 737, 568.5 )

[node name="Spike35" parent="." instance=ExtResource( 4 )]
position = Vector2( 767, 568.5 )

[node name="Spike36" parent="." instance=ExtResource( 4 )]
position = Vector2( 1301, 568.5 )

[node name="Spike37" parent="." instance=ExtResource( 4 )]
position = Vector2( 1333, 568.5 )

[node name="Spike38" parent="." instance=ExtResource( 4 )]
position = Vector2( 1361, 568.5 )

[node name="Spike39" parent="." instance=ExtResource( 4 )]
position = Vector2( 1393, 568.5 )

[node name="Spike40" parent="." instance=ExtResource( 4 )]
position = Vector2( 1421, 568.5 )

[node name="Spike41" parent="." instance=ExtResource( 4 )]
position = Vector2( 1453, 568.5 )

[node name="Spike42" parent="." instance=ExtResource( 4 )]
position = Vector2( 1487, 572 )

[node name="Spike43" parent="." instance=ExtResource( 4 )]
position = Vector2( 1515, 572 )

[node name="Spike44" parent="." instance=ExtResource( 4 )]
position = Vector2( 1545, 572 )

[node name="Spike45" parent="." instance=ExtResource( 4 )]
position = Vector2( 1571, 572 )

[node name="Spike46" parent="." instance=ExtResource( 4 )]
position = Vector2( 1595, 576 )

[node name="Spike47" parent="." instance=ExtResource( 4 )]
position = Vector2( 1627, 566 )

[node name="Spike48" parent="." instance=ExtResource( 4 )]
position = Vector2( 1663, 566 )

[node name="Spike49" parent="." instance=ExtResource( 4 )]
position = Vector2( 1689, 566 )

[node name="Spike50" parent="." instance=ExtResource( 4 )]
position = Vector2( 1721, 566 )

[node name="Spike27" parent="." instance=ExtResource( 4 )]
position = Vector2( 1839, 592 )

[node name="Spike31" parent="." instance=ExtResource( 4 )]
position = Vector2( 1839, 592 )

[node name="Spike28" parent="." instance=ExtResource( 4 )]
position = Vector2( 1815, 592 )

[node name="Spike29" parent="." instance=ExtResource( 4 )]
position = Vector2( 1799, 592 )

[node name="Spike30" parent="." instance=ExtResource( 4 )]
position = Vector2( 1919, 591 )

[node name="Spike2" parent="." instance=ExtResource( 4 )]
position = Vector2( 2779, 340 )
rotation = -3.14159

[node name="Spike4" parent="." instance=ExtResource( 4 )]
position = Vector2( 2739, 340 )
rotation = -3.14159

[node name="Spike5" parent="." instance=ExtResource( 4 )]
position = Vector2( 2699, 340 )
rotation = -3.14159

[node name="Spike6" parent="." instance=ExtResource( 4 )]
position = Vector2( 2659, 340 )
rotation = -3.14159

[node name="Spike7" parent="." instance=ExtResource( 4 )]
position = Vector2( 2619, 340 )
rotation = -3.14159

[node name="Spike8" parent="." instance=ExtResource( 4 )]
position = Vector2( 2579, 340 )
rotation = -3.14159

[node name="Spike9" parent="." instance=ExtResource( 4 )]
position = Vector2( 2579, 340 )
rotation = -3.14159

[node name="Spike3" parent="." instance=ExtResource( 4 )]
position = Vector2( 2539, 340 )
rotation = -3.14159

[node name="bosstrigger" type="Node2D" parent="."]
editor/display_folded = true
position = Vector2( 3584, 475 )
script = ExtResource( 5 )
triggerRoom = Vector2( 3, 0 )
playerPath = NodePath("../Player")

[node name="boss" parent="bosstrigger" instance=ExtResource( 6 )]
pause_mode = 2
position = Vector2( -13, 715 )
playerpath = NodePath("../../Player")

[node name="Savepoint" parent="." instance=ExtResource( 7 )]
position = Vector2( 2399, 290 )

[node name="Savepoint2" parent="." instance=ExtResource( 7 )]
position = Vector2( 2979, 412 )

[node name="Area2D" type="Area2D" parent="."]
position = Vector2( 4129, 380 )
script = ExtResource( 8 )
__meta__ = {
"_edit_group_": true
}
level = "res://scenes/test.tscn"

[node name="CollisionShape2D" type="CollisionShape2D" parent="Area2D"]
shape = SubResource( 1 )

