[gd_scene load_steps=4 format=2]

[ext_resource path="res://prefabs/boss1/shrapnel.gd" type="Script" id=1]
[ext_resource path="res://prefabs/boss1/bomb2.png" type="Texture" id=2]

[sub_resource type="CircleShape2D" id=1]
radius = 14.0

[node name="shrapnel" type="Area2D" groups=[
"bullet",
]]
script = ExtResource( 1 )
gravconst = 3000
rotationSpeed = 0

[node name="Sprite" type="Sprite" parent="."]
texture = ExtResource( 2 )

[node name="CollisionShape2D" type="CollisionShape2D" parent="."]
shape = SubResource( 1 )

