[gd_scene load_steps=3 format=2]

[ext_resource path="res://prefabs/boss1/bomb.gd" type="Script" id=1]
[ext_resource path="res://prefabs/boss1/bomb.png" type="Texture" id=2]

[node name="Area2D" type="Area2D" groups=[
"bullet",
]]
script = ExtResource( 1 )

[node name="Sprite" type="Sprite" parent="."]
texture = ExtResource( 2 )

[node name="Polygon2D" type="CollisionPolygon2D" parent="."]
polygon = PoolVector2Array( -10, -20, 10, -20, 20, -10, 20, 10, 10, 20, -10, 20, -20, 10, -20, -10 )

