[gd_scene load_steps=3 format=2]

[ext_resource path="res://scripts/bullet.gd" type="Script" id=1]

[sub_resource type="RectangleShape2D" id=1]
extents = Vector2( 8, 8 )

[node name="Area2D" type="Area2D" groups=[
"bullet",
]]
script = ExtResource( 1 )

[node name="Polygon2D2" type="Polygon2D" parent="."]
scale = Vector2( 1.5, 1.5 )
color = Color( 0.615686, 0.615686, 0.615686, 1 )
polygon = PoolVector2Array( -10, -10, 10, -10, 10, 10, -10, 10 )

[node name="Polygon2D" type="Polygon2D" parent="."]
polygon = PoolVector2Array( -8, -8, 8, -8, 8, 8, -8, 8 )

[node name="CollisionShape2D" type="CollisionShape2D" parent="."]
shape = SubResource( 1 )

[node name="VisibilityNotifier2D" type="VisibilityNotifier2D" parent="."]

