[gd_resource type="Animation" format=2]

[resource]
resource_name = "phase2"
length = 4.4
step = 0.05
tracks/0/type = "bezier"
tracks/0/path = NodePath(".:position:x")
tracks/0/interp = 1
tracks/0/loop_wrap = true
tracks/0/imported = false
tracks/0/enabled = true
tracks/0/keys = {
"points": PoolRealArray( -400, -0.25, 0, 0.25, 0, -247.609, -0.25, 0, 0.25, 0, -247.609, -0.25, 0, 0.25, 0, -88.0359, -0.25, 0, 0.25, 0, -88.0359, -0.25, 0, 0.25, 0, 84.0376, -0.25, 0, 0.25, 0, 84.0376, -0.25, 0, 0.25, 0, 283.848, -0.25, 0, 0.25, 0, 283.848, -0.25, 0, 0.25, 0, 400, -0.25, 0, 0.25, 0, 400, -0.25, 0, 0.498164, 494.544, -400, -0.271836, -15.324, 0.25, 0 ),
"times": PoolRealArray( 0, 0.4, 0.6, 1, 1.2, 1.6, 1.8, 2.2, 2.4, 2.8, 3.15, 3.9 )
}
tracks/1/type = "bezier"
tracks/1/path = NodePath(".:position:y")
tracks/1/interp = 1
tracks/1/loop_wrap = true
tracks/1/imported = false
tracks/1/enabled = true
tracks/1/keys = {
"points": PoolRealArray( 0, -0.25, 0, 0.25, 0, -300, -0.25, 0, 0.25, 0, 10, -0.25, 0, 0.25, 0, -300, -0.25, 0, 0.25, 0, 10, -0.25, 0, 0.25, 0, -300, -0.25, 0, 0.25, 0, 10, -0.25, 0, 0.25, 0, -300, -0.25, 0, 0.25, 0, 10, -0.25, 0, 0.25, 0, -325, -0.25, 0, 0.25, 0, 50, -0.25, 0, 0.25, 0, 50, -0.25, 0, 0.25, 0, 0, -0.25, 0, 0.25, 0 ),
"times": PoolRealArray( 0, 0.3, 0.6, 0.9, 1.2, 1.5, 1.8, 2.1, 2.4, 2.8, 3.1, 3.9, 4.2 )
}
tracks/2/type = "bezier"
tracks/2/path = NodePath(".:scale:x")
tracks/2/interp = 1
tracks/2/loop_wrap = true
tracks/2/imported = false
tracks/2/enabled = true
tracks/2/keys = {
"points": PoolRealArray( 1, -0.25, 0, 0.25, 0, 1, -0.25, 0, 0.25, 0 ),
"times": PoolRealArray( 0, 0.29 )
}
tracks/3/type = "bezier"
tracks/3/path = NodePath(".:scale:y")
tracks/3/interp = 1
tracks/3/loop_wrap = true
tracks/3/imported = false
tracks/3/enabled = true
tracks/3/keys = {
"points": PoolRealArray( 1, -0.25, 0, 0.25, 0, 1, -0.25, 0, 0.25, 0, 0.75, -0.25, 0, 0.25, 0, 1.25, -0.25, 0, 0.25, 0, 0.75, -0.25, 0, 0.25, 0, 1.25, -0.25, 0, 0.25, 0, 0.75, -0.25, 0, 0.25, 0, 1.25, -0.25, 0, 0.25, 0, 0.75, -0.25, 0, 0.25, 0, 1.25, -0.25, 0, 0.25, 0, 1, -0.25, 0, 0.25, 0 ),
"times": PoolRealArray( 0, 0.45, 0.6, 1, 1.2, 1.6, 1.8, 2.2, 2.4, 2.8, 2.95 )
}
tracks/4/type = "value"
tracks/4/path = NodePath(".:rotation_degrees")
tracks/4/interp = 1
tracks/4/loop_wrap = true
tracks/4/imported = false
tracks/4/enabled = true
tracks/4/keys = {
"times": PoolRealArray( 4.4 ),
"transitions": PoolRealArray( 1 ),
"update": 1,
"values": [ 0.0 ]
}
tracks/5/type = "value"
tracks/5/path = NodePath("Sprite:frame")
tracks/5/interp = 1
tracks/5/loop_wrap = true
tracks/5/imported = false
tracks/5/enabled = true
tracks/5/keys = {
"times": PoolRealArray( 0, 0.3, 3.6 ),
"transitions": PoolRealArray( 1, 1, 1 ),
"update": 1,
"values": [ 0, 2, 0 ]
}
tracks/6/type = "value"
tracks/6/path = NodePath(".:rotation_degrees")
tracks/6/interp = 1
tracks/6/loop_wrap = true
tracks/6/imported = false
tracks/6/enabled = true
tracks/6/keys = {
"times": PoolRealArray( 0, 0.3, 2.5, 2.8, 3.1, 3.3, 3.9, 4.1 ),
"transitions": PoolRealArray( 1, 1, 1, 1, 1, 1, 1, 1 ),
"update": 0,
"values": [ 0.0, 180.0, 180.0, 360.0, 360.0, 320.0, 320.0, 360.0 ]
}
tracks/7/type = "method"
tracks/7/path = NodePath(".")
tracks/7/interp = 1
tracks/7/loop_wrap = true
tracks/7/imported = false
tracks/7/enabled = true
tracks/7/keys = {
"times": PoolRealArray( 4.4 ),
"transitions": PoolRealArray( 1 ),
"values": [ {
"args": [  ],
"method": "nextphase"
} ]
}

